{
    "configurations": [
        {
            "name": "Freestanding",
            "includePath": [
                "${workspaceFolder}/**"
            ],
            "defines": [],
            "compilerPath": "${workspaceFolder}/toolchain/bin/i686-elf-gcc",
            "intelliSenseMode": "gcc-x86",
            "compilerArgs": [
                "-ffreestanding",
                "-fno-exceptions", "-fno-rtti", "-fno-use-cxa-atexit", "-fno-leading-underscore" ],
            "cppStandard": "c++17"
        }
    ],
    "version": 4
}